<?xml version="1.0" encoding="utf-8"?>
<!-- Generator: Adobe Illustrator 18.0.0, SVG Export Plug-In . SVG Version: 6.00 Build 0)  -->
<!DOCTYPE svg PUBLIC "-//W3C//DTD SVG 1.1//EN" "http://www.w3.org/Graphics/SVG/1.1/DTD/svg11.dtd">
<svg version="1.1" id="Layer_1" xmlns="http://www.w3.org/2000/svg" xmlns:xlink="http://www.w3.org/1999/xlink" x="0px" y="0px"
	 viewBox="0 0 250 250" enable-background="new 0 0 250 250" xml:space="preserve">
<g>
	<g transform="translate(-1938 -712)">
		<g>
			<path id="vqp6a" d="M2188,826.7V847c0,21.5-2.5,43.1-2.5,43.1s-2.5,18.4-10,26.4c-9.5,10.6-20,10.7-25,11.3
				c-35,2.7-87.5,2.9-87.5,2.9s-65-0.6-85-2.6c-5.6-1.2-18-0.9-27.5-11.5c-7.5-8-10-26.4-10-26.4s-2.5-21.6-2.5-43.1v-20.3
				c0-21.6,2.5-43.1,2.5-43.1s2.5-18.4,10-26.5c9.5-10.6,20-10.7,25-11.3c35-2.7,87.5-2.7,87.5-2.7s52.5,0,87.5,2.7
				c5,0.5,15.5,0.6,25,11.3c7.5,8.1,10,26.5,10,26.5S2188,804.9,2188,826.7z M2031.8,789.8v93.8l78.1-46.9L2031.8,789.8z"/>
		</g>
	</g>
</g>
</svg>
